…
    ## MungrCleaner History
    ## Status: No changes yet

<br>“cleaner” has 2 attributes: data and log. Data allows us to see our
data frame as a tibble within the object. We can pass this object into
other functions and, when we reassign the output, we can see the updated
tibble in the data attribute. The log attributes show us changes made to
our tibble from MungrClass methods.<br> We can access data and log by
using the \$ symbol:<br>

``` r
cleaner$data
```

    ## # A tibble: 100 × 8
    ##    ID    Name   Status Sale_Price Satisfaction_Rating Is_Active Transaction_Date
    ##    <fct> <chr>  <chr>  <chr>      <chr>                   <dbl> <chr>           
    ##  1 1     " GRA… "pend… 450        1                           1 2023-01-01      
    ##  2 2     "unkn… "inac… <NA>       2                           0 01/15/2024      
    ##  3 3     "fran… "Acti… 150.25     4                           1 01/15/2024      
    ##  4 4     "Heid… ""     200.00     5                           0 2023-12-01      
    ##  5 5      <NA>   <NA>  150.25     3                           0 2023-01-03      
    ##  6 6     "Heid… "Acti… 150.25     3                          NA 01/15/2024      
    ##  7 7     "BOB"  "Unkn… <NA>       3                           0 20230405        
    ##  8 8     " GRA… "Acti… 350        1                           0 <NA>            
    ##  9 9     " GRA… "Acti… <NA>       2                           0 2023-01-02      
    ## 10 10    "arno… "Acti… Error      5                           1 20230405        
    ## # ℹ 90 more rows
    ## # ℹ 1 more variable: Notes_this_is_an_empty_column <chr>
…
